module gitlab.com/beabys/quetzal

go 1.20

require (
	github.com/go-chi/chi/v5 v5.0.12
	github.com/go-redis/redis v6.15.9+incompatible
	github.com/sirupsen/logrus v1.9.3
	github.com/spf13/viper v1.18.2
	gorm.io/driver/mysql v1.5.5
	gorm.io/gorm v1.25.8
	gotest.tools v2.2.0+incompatible
)

require (
	filippo.io/edwards25519 v1.1.0 // indirect
	github.com/fsnotify/fsnotify v1.7.0 // indirect
	github.com/go-sql-driver/mysql v1.8.0 // indirect
	github.com/google/go-cmp v0.6.0 // indirect
	github.com/hashicorp/hcl v1.0.0 // indirect
	github.com/jinzhu/inflection v1.0.0 // indirect
	github.com/jinzhu/now v1.1.5 // indirect
	github.com/magiconair/properties v1.8.7 // indirect
	github.com/mitchellh/mapstructure v1.5.0 // indirect
	github.com/nxadm/tail v1.4.11 // indirect
	github.com/onsi/ginkgo v1.16.5 // indirect
	github.com/onsi/gomega v1.32.0 // indirect
	github.com/pelletier/go-toml/v2 v2.2.0 // indirect
	github.com/pkg/errors v0.9.1 // indirect
	github.com/sagikazarmark/locafero v0.4.0 // indirect
	github.com/sagikazarmark/slog-shim v0.1.0 // indirect
	github.com/sourcegraph/conc v0.3.0 // indirect
	github.com/spf13/afero v1.11.0 // indirect
	github.com/spf13/cast v1.6.0 // indirect
	github.com/spf13/pflag v1.0.5 // indirect
	github.com/subosito/gotenv v1.6.0 // indirect
	go.uber.org/multierr v1.11.0 // indirect
	golang.org/x/exp v0.0.0-20240318143956-a85f2c67cd81 // indirect
	golang.org/x/net v0.23.0 // indirect
	golang.org/x/sys v0.18.0 // indirect
	golang.org/x/text v0.14.0 // indirect
	gopkg.in/ini.v1 v1.67.0 // indirect
	gopkg.in/yaml.v3 v3.0.1 // indirect
)
